{
    "rating": {
        "aggregate": 4.729032258064516,
        "count": 31,
        "breakdown": {
            "5": 23
        }
    },
    "sources": {
        "googlemybusiness": {
            "rating": {
                "aggregate": 5,
                "count": 3,
                "breakdown": {
                    "5": 3
                }
            },
            "reviews": [
                {
                    "source": "googlemybusiness",
                    "name": "David Judge",
                    "title": null,
                    "body": "I contacted Lacey Tech Solutions to see if they could help me with my website. I didn't have time to keep up to date with everything and it was a bit of a mess.  The team did a website audit to assess the website and see what the problems were. I then received a document with 15 pages of improvements. I was very impressed! I got them to make the changes and since then they have suggested other ways to get better results. I highly recommend Ben Lacey and his team.",
                    "score": 5,
                    "date": "2017-02-01T11:41:15+00:00"
                },
                {
                    "source": "googlemybusiness",
                    "name": "Audrey “Marie” Godin",
                    "title": null,
                    "body": "Excellent company, really satisfied! I refer it to anybody! :D",
                    "score": 5,
                    "date": "2016-11-17T18:14:21+00:00"
                },
                {
                    "source": "googlemybusiness",
                    "name": "Philip Taylor",
                    "title": null,
                    "body": "Lacey Tech Solutions were a pleasure to work with every step of the way. I would highly recommend their services.",
                    "score": 5,
                    "date": "2017-03-24T10:40:44+00:00"
                }
            ]
        },
        "trustpilot": {
            "rating": {
                "aggregate": 4.7,
                "count": 28,
                "breakdown": {
                    "5": 20
                }
            },
            "reviews": [
                {
                    "source": "trustpilot",
                    "name": "Alice",
                    "title": "Wordpress Expert",
                    "body": "Ben has given fantastic advice on a woocommerce integration with wordpress, as well as consulting on general security and maintenance of the wordpress website. Definitely recommend him for making sure your website is secure and high performing!",
                    "score": 5,
                    "date": "2020-11-01T11:46:01+00:00"
                },
                {
                    "source": "trustpilot",
                    "name": "Keith Bridges",
                    "title": "I approached Ben with an idea of…",
                    "body": "I approached Ben with an idea of setting up a website and a new logo for my business I’m very pleased with the results and I’ve had excellent service would highly recommend",
                    "score": 5,
                    "date": "2020-10-31T07:39:44+00:00"
                },
                {
                    "source": "trustpilot",
                    "name": "Mark Tuxford",
                    "title": "Wealth of knowledge",
                    "body": "Ben is a wealth of knowledge in a variety of different digital subjects. His passion and overall work ethic enables him to effectively assist all types of businesses/individuals with their online presence. Ben has taken Lacey Tech Solutions to the next level with his forward-thinking approach and extensive knowledge of the industry, from SEO to web design - and anything in-between! His professionalism, positivity and kind nature makes Ben a real pleasure to work with!",
                    "score": 5,
                    "date": "2020-10-14T16:16:42+00:00"
                },
                {
                    "source": "trustpilot",
                    "name": "George Chilcott",
                    "title": "Quick, easy and efficient",
                    "body": "Quick, easy and very helpful. Certainly knew what he was doing. Ben and his team kept me up to date on all progress throughout. The use of a demo site to watch the progress was also great. I would definitely recommend Lacey Tech Solutions they have been very efficient in a tricky time to be working. Thank you!",
                    "score": 5,
                    "date": "2020-04-07T19:40:00+00:00"
                },
                {
                    "source": "trustpilot",
                    "name": "Keith Bridges",
                    "title": "Very good service Excellent…",
                    "body": "Very good service Excellent communication with Ben highly recommend",
                    "score": 5,
                    "date": "2020-03-02T18:09:33+00:00"
                },
                {
                    "source": "trustpilot",
                    "name": "ECS Chauffeur",
                    "title": "I was having problems with my website…",
                    "body": "I was having problems with my website and needed help to sort things out. Lacey Tech Solutions were recommended to me from a friend. Since talking with them, they have been really helpful and given me lots of great advice. My domain name was controlled by the previous developer and Lacey Tech helped me transfer ownership so I could manage my domain. Ben recommended that we shorten the domain as it was really long and the process went smoothly without any issues. They assisted with setting up the new domain and emails, which helped a lot. Where I was messed around by my previous developer it was so nice to be dealing with a professional. I have asked Lacey Tech to manage my Google Ads and they have completely overhauled the account and set this up so conversions are tracked and they rewrote the ads, which resulted in more enquiries. My new website looks great and they helped write informative content for key services pages. When the new website is launched I will be getting them to do social media, search engine optimisation and Google Ads to generate enquiries for my business. I highly recommend Lacey Tech as they clearly explain things and they have done a really good job of sorting out the mess I was in before I worked with them. Fantastic service",
                    "score": 5,
                    "date": "2020-02-07T20:43:37+00:00"
                },
                {
                    "source": "trustpilot",
                    "name": "Baljot Gill",
                    "title": "Amazing Time Working Them",
                    "body": "Great company to work for. Really helped me with my work experience. It was great working with Ben as he taught me a lot of things which really helped.",
                    "score": 5,
                    "date": "2020-01-25T13:51:32+00:00"
                },
                {
                    "source": "trustpilot",
                    "name": "Gary Bullen",
                    "title": "Excellent start!!",
                    "body": "We have recently taken on Ben and his team at Lacey Tech Solutions and have found our initial experience with them to be a very good and productive one.  His ideas have resonated with us as a company and a brand and we look forward to working with him on an ongoing basis to see what he and his team can come up with.",
                    "score": 5,
                    "date": "2019-11-19T15:28:23+00:00"
                },
                {
                    "source": "trustpilot",
                    "name": "Steve Myring",
                    "title": "Ben was outstanding with his knowledge…",
                    "body": "Ben was outstanding with his knowledge of my industry and even more factual about his own website design and SEO industry, spoke in depth about strategy and the redevelopment of my website. Thank you Ben and I look forward to a long working relationship.",
                    "score": 5,
                    "date": "2019-11-18T11:10:06+00:00"
                },
                {
                    "source": "trustpilot",
                    "name": "name",
                    "title": "Lacey Tech are a 10 out of 5",
                    "body": "Lacey Tech have been looking after us for quite a few years now and have turned our online presence around.  Our bounce rate was at 99% and it is now at 12%.  Our visits were an average of 300 per month and now we are getting 7000 average visitors per month.  As you can see Lacey Tech have pulled us out of the dark and put our company in the light. We can't wait to see what the future brings with our new website soon to be launched, using Lacey Techs SEO and pay per click adverts the sky is the limit!",
                    "score": 5,
                    "date": "2019-10-30T10:17:35+00:00"
                },
                {
                    "source": "trustpilot",
                    "name": "Phoenix",
                    "title": "Ben and his team produced a Pay Per…",
                    "body": "Ben and his team produced a Pay Per Click audit for me, which was very thorough. Some bits of the report were difficult to follow for someone non-technical. Since making the changes to the account we're spending roughly the same in terms of budget but we've seen a nice increase in conversions and enquiries over a 6 month period. The team were always nice to talk to over the phone if I had any questions and I would recommend them to any small business looking for similar services.",
                    "score": 5,
                    "date": "2019-10-15T07:22:36+00:00"
                },
                {
                    "source": "trustpilot",
                    "name": "Daryl",
                    "title": "Just to want to say thank you to Ben…",
                    "body": "Just to want to say thank you to Ben and his team for the work they have done so far on understanding my requirements and needs for my new website",
                    "score": 5,
                    "date": "2019-09-18T11:44:38+00:00"
                },
                {
                    "source": "trustpilot",
                    "name": "Romin Kumar",
                    "title": "Google PPC",
                    "body": "Lacey Tech Solutions have recently taken over our PPC Campaign and have helped lower our costs per click but improving the overall impressions and clicks. They have removed keywords which were not performing or irrelevant to our Business. They made changes to several under performing campaigns and the quality of enquiries we are getting now has improved massively. We would definitely recommend Lacey Tech Solutions for PPC requirements as well as all other aspects of Website management",
                    "score": 5,
                    "date": "2019-08-22T07:25:52+00:00"
                },
                {
                    "source": "trustpilot",
                    "name": "Phil Stockham",
                    "title": "5 stars",
                    "body": "5 stars: Excellent – no reservations, I would recommend this company to anyone",
                    "score": 5,
                    "date": "2019-05-14T08:48:49+00:00"
                },
                {
                    "source": "trustpilot",
                    "name": "John Smythe",
                    "title": "knowledgeable and professional support service",
                    "body": "I asked a question, and I recieved a quick response time, from Ben. The support was professional and he is very knowledgeable. My issue was resolved quickly, with great communication from Lacey Tech Solutions.",
                    "score": 5,
                    "date": "2019-03-11T01:23:23+00:00"
                },
                {
                    "source": "trustpilot",
                    "name": "Allan Webber",
                    "title": "MR LACEY HAS WORKED TIRELESSLY TO HELP…",
                    "body": "MR LACEY HAS WORKED TIRELESSLY TO HELP AND SUPPORT US AND HAS SHOWN GREAT EXPERTISE",
                    "score": 5,
                    "date": "2018-09-02T10:18:06+00:00"
                },
                {
                    "source": "trustpilot",
                    "name": "Rebecca Jean-Carroll",
                    "title": "Highly recommend",
                    "body": "I came to Lacey Tech Solutions with rather an ambitious idea for a website but it really was with their help, effort and thought that it has become a reality. Very prompt, patient and positive to work with. Highly recommend.",
                    "score": 5,
                    "date": "2018-05-04T19:17:29+00:00"
                },
                {
                    "source": "trustpilot",
                    "name": "Ron and Nish",
                    "title": "Since we contacted Lacey Tech Solutions …",
                    "body": "Since we contacted Lacey Tech Solutions to get our Ecommerce website designed for us, Ben has been very thorough in explaining it step by step and always keeps us update on the design of our website.  I would definitely recommend this company to anyone.",
                    "score": 5,
                    "date": "2018-02-04T19:23:37+00:00"
                },
                {
                    "source": "trustpilot",
                    "name": "Debbie Rapley",
                    "title": "Great",
                    "body": "Helpful, friendly and very knowledgeable.",
                    "score": 5,
                    "date": "2018-02-01T15:36:53+00:00"
                },
                {
                    "source": "trustpilot",
                    "name": "Philip John Stockham",
                    "title": "Great Service honest & trustworthy will …",
                    "body": "Great Service honest & trustworthy will always recommend Lacey Tech solutions",
                    "score": 5,
                    "date": "2017-12-07T10:24:01+00:00"
                }
            ]
        }
    }
}